Time,Inject #,From,To,Means,Message,Expected Actions,Time of Completion,Notes,Caller/Quantity
June 16 0910,,Oakland EM staff,Oakland EOC station,Word of mouth,Please establish contact with SEOC,"Local EOC station to contact SEOC, on VHF if possible, otherwise HF. SEOC asks EOC to confirm circuit in three hours",,,
June 16 0915,,Alcona EM Staff,Alcona EOC Station,Word of mouth,Please establish contact with SEOC,"Local EOC station to contact SEOC, on VHF if possible, otherwise HF. SEOC asks EOC to confirm circuit in three hours",,,
June 16 0920,,Bay County EM Staff,Bay County EOC Station,Word of mouth,Please establish contact with SEOC,"Local EOC station to contact SEOC, on VHF if possible, otherwise HF. SEOC asks EOC to confirm circuit in three hours",,,
June 16 0925,,Arenac EM Staff,Arenac EOC Station,Word of mouth,Please establish contact with SEOC,"Local EOC station to contact SEOC, on VHF if possible, otherwise HF. SEOC asks EOC to confirm circuit in three hours",,,
June 16 0930,,Kent EM staff,Kent EOC station,Word of mouth,Please establish contact with SEOC,"Local EOC station to contact SEOC, on VHF if possible, otherwise HF. SEOC asks EOC to confirm circuit in three hours",,,
June 16 0935,,CCE EM Staff,CCE EOC Station,Word of mouth,Please establish contact with SEOC,"Local EOC station to contact SEOC, on VHF if possible, otherwise HF. SEOC asks EOC to confirm circuit in three hours",,,
June 16 0945,,Lapeer EM Staff,Lapeer EOC Station,Word of mouth,Please establish contact with SEOC,"Local EOC station to contact SEOC, on VHF if possible, otherwise HF. SEOC asks EOC to confirm circuit in three hours",,,
June 16 0950,,Genesee EM Staff,Genesee EOC station,Word of mouth,Please establish contact with SEOC,"Local EOC station to contact SEOC, on VHF if possible, otherwise HF. SEOC asks EOC to confirm circuit in three hours",,,
June 16 0955,,Midland EM Staff,Midland EOC Station,Word of mouth,Please establish contact with SEOC,"Local EOC station to contact SEOC, on VHF if possible, otherwise HF. SEOC asks EOC to confirm circuit in three hours",,,
June 16 1005,,Ogemaw EM Staff,Ogemaw EOC Station,Word of mouth,Please establish contact with SEOC,"Local EOC station to contact SEOC, on VHF if possible, otherwise HF. SEOC asks EOC to confirm circuit in three hours",,,
June 16 1010,,Kalamazoo EM staff,Kalamazoo EOC station,Word of mouth,Please establish contact with SEOC,"Local EOC station to contact SEOC, on VHF if possible, otherwise HF. SEOC asks EOC to confirm circuit in three hours",,,
June 16 1015,,Saginaw EM Staff,Saginaw EOC Station,Word of mouth,Please establish contact with SEOC,"Local EOC station to contact SEOC, on VHF if possible, otherwise HF. SEOC asks EOC to confirm circuit in three hours",,,
June 16 1025,,Sanilac EM Staff,Sanilac EOC Station,Word of mouth,Please establish contact with SEOC,"Local EOC station to contact SEOC, on VHF if possible, otherwise HF. SEOC asks EOC to confirm circuit in three hours",,Locals will need some understanding of solar conditions to select HF frequency and awareness of SEOC frequencies,
June 16 1035,,Tuscola EM Staff,Tuscola EOC Station,Word of mouth,Please establish contact with SEOC,"Local EOC station to contact SEOC, on VHF if possible, otherwise HF. SEOC asks EOC to confirm circuit in three hours",,Locals will need some understanding of solar conditions to select HF frequency and awareness of SEOC frequencies,
June 16 1045,,Wayne EM Staff,Wayne EOC Station,Word of mouth,Please establish contact with SEOC,"Local EOC station to contact SEOC, on VHF if possible, otherwise HF. SEOC asks EOC to confirm circuit in three hours",,Locals will need some understanding of solar conditions to select HF frequency and awareness of SEOC frequencies,
June 16 1050,,Kent EM staff,Kent EOC station,Radio RR,MI-CIMS resource request for appropriate resource,"Local EOC station to deliver to SEOC, SEOC station enter in MI-CIMS",,,
June 16 1100,,Oakland EM staff,Oakland EOC station,Radio RR,MI-CIMS resource request for appropriate resource,"Local EOC station to deliver to SEOC, SEOC station enter in MI-CIMS",,,
June 16 1100,,Bay County EM Staff,Bay County EOC Station,Radio RR,MI-CIMS resource request for appropriate resource,"Local EOC station to deliver to SEOC, SEOC station enter in MI-CIMS",,,
June 16 1110,,Genesee EM staff,Genesee EOC station,Radio RR,MI-CIMS resource request for appropriate resource,"Local EOC station to deliver to SEOC, SEOC station enter in MI-CIMS",,,
June 16 1120,,Alcona EM Staff,Alcona EOC station,Radio RR,MI-CIMS resource request for appropriate resource,"Local EOC station to deliver to SEOC, SEOC station enter in MI-CIMS",,,
June 16 1130,,Kalamazoo EM staff,Kalamazoo EOC station,Radio RR,MI-CIMS resource request for appropriate resource,"Local EOC station to deliver to SEOC, SEOC station enter in MI-CIMS",,,
June 16 1140,,CCE EM Staff,CCE EOC Station,Radio RR,MI-CIMS resource request for appropriate resource,"Local EOC station to deliver to SEOC, SEOC station enter in MI-CIMS",,,
June 16 1150,,Ogemaw EM Staff,Ogemaw EOC Station,Radio RR,MI-CIMS resource request for appropriate resource,"Local EOC station to deliver to SEOC, SEOC station enter in MI-CIMS",,,
June 16 1200,,Sanilac EM Staff,Sanilac EOC Station,Radio RR,MI-CIMS resource request for appropriate resource,"Local EOC station to deliver to SEOC, SEOC station enter in MI-CIMS",,,
June 16 1210,,Wayne EM Staff,Wayne EOC Station,Radio RR,MI-CIMS resource request for appropriate resource,"Local EOC station to deliver to SEOC, SEOC station enter in MI-CIMS",,,
June 16 1220,,Sagniaw EM Staff,Saginaw EOC Station,Radio RR,MI-CIMS resource request for appropriate resource,"Local EOC station to deliver to SEOC, SEOC station enter in MI-CIMS",,,
June 16 1230,,Midland EM Staff,Midland EOC Station,Radio RR,MI-CIMS resource request for appropriate resource,"Local EOC station to deliver to SEOC, SEOC station enter in MI-CIMS",,,
June 16 1240,,Lapeer EM Staff,Lapeer EOC Station,Radio RR,MI-CIMS resource request for appropriate resource,"Local EOC station to deliver to SEOC, SEOC station enter in MI-CIMS",,,
June 16 1250,,Arenac EM Staff,Arenac EOC Station,Radio RR,MI-CIMS resource request for appropriate resource,"Local EOC station to deliver to SEOC, SEOC station enter in MI-CIMS",,,
June 16 1300,,Tuscola EM Staff,Tuscola EOC Station,Radio RR,MI-CIMS resource request for appropriate resource,"Local EOC station to deliver to SEOC, SEOC station enter in MI-CIMS",,,
