

Counties playing in statewide exercise

	 Alcona  *
	 Arenac  *
	 Bay     *
	 CCE
	 Genesee *
	 Kalamazoo
	 Kent
	 Lapeer  *
	 Midland *
	 Oakland
	 Ogemaw  *
	 Saginaw *
	 Sanilac *
	 Tuscola *
	 Wayne

  First RACES inject 0910
   Last RACES inject 1300

